Introdução ao R - R e RStudio
…
Instalando o pacote dados

O pacote dados disponibiliza diversas bases de dados para aprendizado. E a melhor parte, são todas traduzidas para português!

O pacote pode ser instalado com a função install.packages():

install.packages("dados")

E então carregamos com a função library() para usar os dados disponibilizados:

library(dados)

pixar_bilheteria

# A tibble: 24 × 5
   filme                  orcamento bilheteria_eua_canada bilheteria_outros_pa…¹
   <chr>                      <dbl>                 <dbl>                  <dbl>
 1 Toy Story - Um Mundo …  30000000             191796233              181757800
 2 Vida de Inseto         120000000             162798565              200460294
 3 Toy Story 2             90000000             245852179              251522597
 4 Monstros S. A.         115000000             289916256              342400393
 5 Procurando Nemo         94000000             339714978              531300000
 6 Os Incríveis            92000000             261441092              370165621
 7 Carros                 120000000             244082982              217900167
 8 Ratatouille            150000000             206445654              417280431
 9 WALL-E                 180000000             223808164              297503696
10 Up - Altas Aventuras   175000000             293004164              442094918
# ℹ 14 more rows
# ℹ abbreviated name: ¹​bilheteria_outros_paises
# ℹ 1 more variable: bilheteria_mundial <dbl>
…
