Introdução ao R - Gabarito da Aula 4: Análise descritiva
…
3pinguins_2009

1

Carregar pacotes necessários.

2

Filtrar a base apenas com as documentações do ano de 2009. Atribuir o subconjunto no objeto pinguins_2009.

3

Por fim, mostrar o objeto criado.

# A tibble: 120 × 8
   especie        ilha  comprimento_bico profundidade_bico comprimento_nadadeira
   <fct>          <fct>            <dbl>             <dbl>                 <int>
 1 Pinguim-de-ad… Bisc…             35                17.9                   192
 2 Pinguim-de-ad… Bisc…             41                20                     203
 3 Pinguim-de-ad… Bisc…             37.7              16                     183
 4 Pinguim-de-ad… Bisc…             37.8              20                     190
 5 Pinguim-de-ad… Bisc…             37.9              18.6                   193
 6 Pinguim-de-ad… Bisc…             39.7              18.9                   184
 7 Pinguim-de-ad… Bisc…             38.6              17.2                   199
 8 Pinguim-de-ad… Bisc…             38.2              20                     190
 9 Pinguim-de-ad… Bisc…             38.1              17                     181
10 Pinguim-de-ad… Bisc…             43.2              19                     197
# ℹ 110 more rows
# ℹ 3 more variables: massa_corporal <int>, sexo <fct>, ano <int>
…
Podemos observar que a variável sexo na base dos pinguins_2009 possui três valores ausentes. Caso queiramos remover os pinguins sem valor na variável sexo da base de dados, podemos criar um subconjunto apenas com as observações sem NA nessa coluna:

pinguins_2009_sem_na_sexo <- pinguins_2009 |> 
  filter(!is.na(sexo))

# Notem que agora a base de dados tem apenas 117 linhas (3 pinguins foram removidos)
pinguins_2009_sem_na_sexo

# A tibble: 117 × 8
   especie        ilha  comprimento_bico profundidade_bico comprimento_nadadeira
   <fct>          <fct>            <dbl>             <dbl>                 <int>
 1 Pinguim-de-ad… Bisc…             35                17.9                   192
 2 Pinguim-de-ad… Bisc…             41                20                     203
 3 Pinguim-de-ad… Bisc…             37.7              16                     183
 4 Pinguim-de-ad… Bisc…             37.8              20                     190
 5 Pinguim-de-ad… Bisc…             37.9              18.6                   193
 6 Pinguim-de-ad… Bisc…             39.7              18.9                   184
 7 Pinguim-de-ad… Bisc…             38.6              17.2                   199
 8 Pinguim-de-ad… Bisc…             38.2              20                     190
 9 Pinguim-de-ad… Bisc…             38.1              17                     181
10 Pinguim-de-ad… Bisc…             43.2              19                     197
# ℹ 107 more rows
# ℹ 3 more variables: massa_corporal <int>, sexo <fct>, ano <int>
…
