Introdução ao R - Manipulação de dados
…
[1] 9

Não importa o tamanho da cadeia de funções, eu recomendo que vocês realizem a atribuição sempre no topo.

Vamos colocar a mão na massa no questionario

questionario é uma base de dados disponibilizada no pacote dados.

# install.packages("dados")
library(dados)

questionario

# A tibble: 21,483 × 9
     ano estado_civil  idade raca   renda  partido religiao denominacao horas_tv
   <int> <fct>         <int> <fct>  <fct>  <fct>   <fct>    <fct>          <int>
 1  2000 Nunca casou      26 Branca US$ 8… Indepe… Protest… Batistas d…       12
 2  2000 Divorciado(a)    48 Branca US$ 8… Não fo… Protest… Batista, n…       NA
 3  2000 Viúvo(a)         67 Branca Não s… Indepe… Protest… Sem denomi…        2
 4  2000 Nunca casou      39 Branca Não s… Indepe… Cristã … Não se apl…        4
 5  2000 Divorciado(a)    25 Branca Não s… Não fo… Nenhuma  Não se apl…        1
 6  2000 Casado(a)        25 Branca US$ 2… Fortem… Protest… Batistas d…       NA
 7  2000 Nunca casou      36 Branca US$ 2… Não fo… Cristã   Não se apl…        3
 8  2000 Divorciado(a)    44 Branca US$ 7… Indepe… Protest… Sínodo lut…       NA
 9  2000 Casado(a)        44 Branca US$ 2… Não fo… Protest… Outra              0
10  2000 Casado(a)        47 Branca US$ 2… Fortem… Protest… Batistas d…        3
# ℹ 21,473 more rows

Trata-se de uma base de dados do General Social Survey (GSS). Dados de 2000 a 2014.

Filtrando linhas com filter()

Podemos usar a função filter() para filtrar as observações da base de dados.

library(dplyr)

divorciados <- questionario |> 
  filter(estado_civil == "Divorciado(a)")

divorciados

# A tibble: 3,383 × 9
     ano estado_civil  idade raca   renda  partido religiao denominacao horas_tv
   <int> <fct>         <int> <fct>  <fct>  <fct>   <fct>    <fct>          <int>
 1  2000 Divorciado(a)    48 Branca US$ 8… Não fo… Protest… Batista, n…       NA
 2  2000 Divorciado(a)    25 Branca Não s… Não fo… Nenhuma  Não se apl…        1
 3  2000 Divorciado(a)    44 Branca US$ 7… Indepe… Protest… Sínodo lut…       NA
 4  2000 Divorciado(a)    52 Branca US$ 2… Indepe… Nenhuma  Não se apl…        1
 5  2000 Divorciado(a)    72 Branca Não s… Fortem… Protest… Batistas d…        7
 6  2000 Divorciado(a)    36 Negra  US$ 1… Fortem… Nenhuma  Não se apl…       NA
 7  2000 Divorciado(a)    39 Negra  Não s… Indepe… Nenhuma  Não se apl…       NA
 8  2000 Divorciado(a)    51 Branca US$ 2… Indepe… Protest… Batista, n…        2
 9  2000 Divorciado(a)    45 Branca US$ 2… Indepe… Protest… Batistas d…        2
10  2000 Divorciado(a)    78 Branca Não s… Indepe… Protest… Batistas d…        4
# ℹ 3,373 more rows

Ordenando linhas com arrange()

Com a função arrange(), nós podemos reordenar as observações da base de dados.

questionario |> 
  arrange(ano, desc(idade))

# A tibble: 21,483 × 9
     ano estado_civil  idade raca   renda  partido religiao denominacao horas_tv
   <int> <fct>         <int> <fct>  <fct>  <fct>   <fct>    <fct>          <int>
 1  2000 Viúvo(a)         89 Branca Não s… Não fo… Protest… Outras lut…        4
 2  2000 Viúvo(a)         89 Branca Não s… Indepe… Protest… Outras met…        3
 3  2000 Nunca casou      89 Branca Não s… Indepe… Protest… Igreja lut…        2
 4  2000 Viúvo(a)         89 Negra  Não s… Indepe… Protest… Batista, n…        8
 5  2000 Viúvo(a)         89 Branca Não s… Não fo… Protest… Evangélica…        3
 6  2000 Divorciado(a)    89 Branca Não s… Não fo… Protest… Igreja met…        3
 7  2000 Casado(a)        89 Branca Não s… Fortem… Protest… União pres…        5
 8  2000 Viúvo(a)         89 Negra  Não s… Não fo… Protest… Batista, n…       10
 9  2000 Casado(a)        89 Negra  Não s… Fortem… Protest… Convenção …        3
10  2000 Viúvo(a)         89 Negra  Não s… Fortem… Protest… Outras bat…        8
# ℹ 21,473 more rows

Os dados foram ordenados pelo ano de forma ascendente e idadede forma descendente.

Selecionando colunas com select()

Não apenas podemos limitar as linhas, mas podemos incluir colunas específicas (e colocá-las na ordem listada) usando select().

divorciados |> 
  select(ano, idade, horas_tv)

# A tibble: 3,383 × 3
     ano idade horas_tv
   <int> <int>    <int>
 1  2000    48       NA
 2  2000    25        1
 3  2000    44       NA
 4  2000    52        1
 5  2000    72        7
 6  2000    36       NA
 7  2000    39       NA
 8  2000    51        2
 9  2000    45        2
10  2000    78        4
# ℹ 3,373 more rows

Removendo colunas com select()

Ao invés de selecionar, podemos remover colunas específicas com select() usando -.

divorciados |> 
  select(-estado_civil, -renda, -denominacao)

# A tibble: 3,383 × 6
     ano idade raca   partido                              religiao    horas_tv
   <int> <int> <fct>  <fct>                                <fct>          <int>
 1  2000    48 Branca Não fortemente repubicano            Protestante       NA
 2  2000    25 Branca Não fortemente democrata             Nenhuma            1
 3  2000    44 Branca Independente, inclinação democrata   Protestante       NA
 4  2000    52 Branca Independente, inclinação democrata   Nenhuma            1
 5  2000    72 Branca Fortemente democrata                 Protestante        7
 6  2000    36 Negra  Fortemente democrata                 Nenhuma           NA
 7  2000    39 Negra  Independente                         Nenhuma           NA
 8  2000    51 Branca Independente                         Protestante        2
 9  2000    45 Branca Independente, inclinação republicana Protestante        2
10  2000    78 Branca Independente, inclinação democrata   Protestante        4
# ℹ 3,373 more rows

Funções auxiliares para o select()

select() tem uma série de funções auxiliares como starts_with(), ends_with(), e contains(), ou pode ser dada uma gama de colunas em sequência varinicial:varfinal.

questionario |>
  select(ends_with("ao"))

# A tibble: 21,483 × 2
   religiao        denominacao           
   <fct>           <fct>                 
 1 Protestante     Batistas do sul       
 2 Protestante     Batista, não sabe qual
 3 Protestante     Sem denominação       
 4 Cristã ortodoxa Não se aplica         
 5 Nenhuma         Não se aplica         
 6 Protestante     Batistas do sul       
 7 Cristã          Não se aplica         
 8 Protestante     Sínodo luterano       
 9 Protestante     Outra                 
10 Protestante     Batistas do sul       
# ℹ 21,473 more rows

questionario |> 
  select(ano:raca)

# A tibble: 21,483 × 4
     ano estado_civil  idade raca  
   <int> <fct>         <int> <fct> 
 1  2000 Nunca casou      26 Branca
 2  2000 Divorciado(a)    48 Branca
 3  2000 Viúvo(a)         67 Branca
 4  2000 Nunca casou      39 Branca
 5  2000 Divorciado(a)    25 Branca
 6  2000 Casado(a)        25 Branca
 7  2000 Nunca casou      36 Branca
 8  2000 Divorciado(a)    44 Branca
 9  2000 Casado(a)        44 Branca
10  2000 Casado(a)        47 Branca
# ℹ 21,473 more rows

?select para mais detalhes.

Criando e modificando colunas com mutate()

No dplyr, nós podemos adicionar ou modificar colunas usando mutate().

divorciados |> 
  filter(raca == "Branca") |> 
  select(ano, idade, horas_tv) |> 
  mutate(idade_em_decadas = idade / 10,
         horas_tv_em_minutos = horas_tv * 60)

# A tibble: 2,676 × 5
     ano idade horas_tv idade_em_decadas horas_tv_em_minutos
   <int> <int>    <int>            <dbl>               <dbl>
 1  2000    48       NA              4.8                  NA
 2  2000    25        1              2.5                  60
 3  2000    44       NA              4.4                  NA
 4  2000    52        1              5.2                  60
 5  2000    72        7              7.2                 420
 6  2000    51        2              5.1                 120
 7  2000    45        2              4.5                 120
 8  2000    78        4              7.8                 240
 9  2000    61       NA              6.1                  NA
10  2000    75        7              7.5                 420
# ℹ 2,666 more rows

divorciados |> 
  filter(religiao == "Protestante") |> 
  select(ano, idade, horas_tv) |> 
  mutate(horas_tv = horas_tv * 60)

# A tibble: 1,792 × 3
     ano idade horas_tv
   <int> <int>    <dbl>
 1  2000    48       NA
 2  2000    44       NA
 3  2000    72      420
 4  2000    51      120
 5  2000    45      120
 6  2000    78      240
 7  2000    75      420
 8  2000    62       NA
 9  2000    40       NA
10  2000    56      120
# ℹ 1,782 more rows
…
